<?xml version="1.0" standalone="no"?>
<!DOCTYPE svg PUBLIC "-//W3C//DTD SVG 1.1//EN" "http://www.w3.org/Graphics/SVG/1.1/DTD/svg11.dtd" >
<svg xmlns="http://www.w3.org/2000/svg">
<metadata>Generated by IcoMoon</metadata>
<defs>
<font id="icomoon" horiz-adv-x="1024">
<font-face units-per-em="1024" ascent="960" descent="-64" />
<missing-glyph horiz-adv-x="1024" />
<glyph unicode="&#x20;" horiz-adv-x="512" d="" />
<glyph unicode="&#xe900;" glyph-name="shopping-bag" horiz-adv-x="1054" d="M410.594 940.117c-41.755-24.854-62.633-67.604-62.633-129.243v-49.709h-162.050c-112.342 0-166.027-3.977-173.981-11.93-8.948-8.948-11.93-110.353-11.93-396.676 0-211.759 2.983-391.705 5.965-400.652 4.971-13.918 59.65-15.907 514.983-15.907 382.757 0 512 2.983 520.948 11.93 16.901 16.901 16.901 784.404 0 801.305-7.953 7.953-61.639 11.93-173.981 11.93h-162.050v49.709c0 61.639-20.878 104.388-62.633 129.243-24.854 15.907-49.709 19.883-116.318 19.883s-91.464-3.977-116.318-19.883zM611.417 855.612c16.901-15.907 24.854-34.796 24.854-59.65v-34.796h-218.718v34.796c0 57.662 34.796 84.505 109.359 84.505 50.703 0 64.621-3.977 84.505-24.854zM347.961 608.062c0-65.616 1.988-74.563 19.883-80.528 36.784-11.93 49.709 10.936 49.709 85.499v68.598h218.718v-68.598c0-74.563 12.924-97.429 49.709-85.499 17.895 5.965 19.883 14.913 19.883 80.528v73.569h268.427v-666.097h-894.757v666.097h268.427v-73.569z" />
<glyph unicode="&#xe901;" glyph-name="search" d="M357.955 957.032c-175.416-22.261-312.543-147.812-349.347-320.557-9.498-44.522-9.498-121.693 0-166.214 34.133-159.981 154.936-280.784 314.917-314.917 44.522-9.498 121.693-9.498 166.214 0 50.161 10.685 96.761 29.978 146.328 60.846 4.452 2.671 24.042-15.731 140.986-132.378 74.5-74.5 140.392-137.721 146.031-140.689 13.95-6.827 45.412-6.827 59.362 0.297 14.544 7.123 26.119 18.699 33.243 32.649 8.014 15.434 8.608 46.006 1.187 60.846-2.968 5.639-66.189 71.532-140.689 146.031-116.647 116.944-135.049 136.533-132.378 140.986 30.868 49.568 50.161 96.167 60.846 146.328 9.498 44.522 9.498 121.693 0 166.214-34.133 159.981-156.717 282.268-314.917 314.62-35.024 7.123-99.432 10.092-131.784 5.936zM478.46 850.477c91.121-24.042 167.402-87.263 206.284-171.26 5.343-11.872 13.653-34.727 17.809-50.755 7.42-25.823 8.311-34.133 8.311-75.093s-0.89-49.271-8.311-75.093c-30.275-110.117-110.711-190.553-220.828-220.828-25.823-7.42-34.133-8.311-75.093-8.311s-49.271 0.89-75.093 8.311c-110.711 30.572-193.521 114.272-222.015 224.093-7.717 29.978-10.388 81.623-5.936 113.679 18.699 128.816 120.802 235.075 249.025 259.413 31.759 5.936 95.573 3.859 125.848-4.155z" />
<glyph unicode="&#xe902;" glyph-name="heart-fill" horiz-adv-x="1205" d="M293.463 954.693c-4.371-0.624-20.917-4.683-36.839-8.741-55.883-14.673-102.4-41.522-147.98-85.229-45.893-44.020-78.673-100.215-95.22-162.029-7.18-26.849-8.117-36.839-8.117-80.546 0-41.21 0.937-54.010 6.556-73.99 20.917-75.863 65.249-144.546 144.234-224.156 48.078-48.078 93.034-87.415 215.415-187.317 95.844-78.361 155.161-130.498 191.063-168.273 24.039-24.976 24.351-25.288 39.649-25.288h15.61l35.278 36.215c39.649 40.898 93.971 88.351 188.254 164.839 100.527 81.795 143.298 118.634 190.127 164.215 114.888 111.766 164.527 198.868 169.522 298.146 8.117 166.088-112.39 318.439-276.917 349.346-33.405 6.556-93.346 6.556-124.254 0-61.502-12.488-114.263-41.21-165.151-89.912l-32.156-30.907-30.595 29.346c-52.137 50.576-102.712 78.361-167.024 92.098-19.98 4.059-91.473 5.62-111.454 2.185z" />
<glyph unicode="&#xe903;" glyph-name="heart" horiz-adv-x="1205" d="M293.463 954.693c-4.371-0.624-20.917-4.683-36.839-8.741-55.883-14.673-102.4-41.522-147.98-85.229-45.893-44.020-78.673-100.215-95.22-162.029-7.18-26.849-8.117-36.839-8.117-80.546 0-41.21 0.937-54.010 6.556-73.99 20.917-75.863 65.249-144.546 144.234-224.156 48.078-48.078 93.034-87.415 215.415-187.317 95.844-78.361 155.161-130.498 191.063-168.273 24.039-24.976 24.351-25.288 39.649-25.288h15.61l35.278 36.215c39.649 40.898 93.971 88.351 188.254 164.839 100.527 81.795 143.298 118.634 190.127 164.215 114.888 111.766 164.527 198.868 169.522 298.146 8.117 166.088-112.39 318.439-276.917 349.346-33.405 6.556-93.346 6.556-124.254 0-61.502-12.488-114.263-41.21-165.151-89.912l-32.156-30.907-30.595 29.346c-52.137 50.576-102.712 78.361-167.024 92.098-19.98 4.059-91.473 5.62-111.454 2.185zM408.039 878.829c62.751-14.985 115.2-50.263 156.098-105.21 18.732-25.288 29.659-30.907 49.327-25.6 8.429 2.498 14.673 8.429 27.473 25.6 41.21 55.571 98.966 93.034 164.527 107.083 27.785 5.932 85.541 5.62 112.702-0.624 99.278-22.478 176.39-97.093 202.927-196.371 9.99-37.151 9.99-94.595 0.312-126.439-9.99-31.532-34.029-76.8-59.005-110.829-26.849-36.215-120.82-130.185-178.888-178.263-24.976-20.605-78.361-64.937-118.634-98.341-62.751-51.824-155.161-134.556-160.468-142.985-0.937-1.249-13.424 8.741-27.473 22.166-37.776 35.902-100.839 90.224-178.888 153.912-140.176 114.263-210.732 181.073-255.376 240.39-23.727 31.844-52.449 87.102-60.566 117.073-7.805 29.346-7.18 89.912 1.873 123.317 25.912 97.405 106.771 175.454 204.488 196.683 29.971 6.556 89.288 5.62 119.571-1.561z" />
<glyph unicode="&#xe904;" glyph-name="bars" horiz-adv-x="1236" d="M2.404 889.089v-68.507h1230.723v137.014h-1230.723v-68.507zM2.404 429.972v-68.507h1230.723v137.014h-1230.723v-68.507zM2.404 6.911v-68.507h1230.723v137.014h-1230.723v-68.507z" />
<glyph unicode="&#xe905;" glyph-name="close" d="M54.058 905.704c-28.339-28.339-51.676-52.867-51.676-54.058 0-1.429 90.255-92.636 200.513-202.895l200.752-200.752-402.456-402.456 54.296-54.058 54.058-54.296 402.456 402.456 402.456-402.456 54.058 54.296 54.296 54.058-402.456 402.456 402.456 402.456-54.296 54.058-54.058 54.296-402.456-402.456-200.752 200.752c-110.259 110.259-201.704 200.513-202.895 200.513-1.429 0-25.719-23.338-54.296-51.914z" />
<glyph unicode="&#xe906;" glyph-name="telephone" d="M997.656 204.733l-127.298 127.298c-35.096 35.094-92.204 35.094-127.298 0l-57.862-57.862c-26.588-26.588-69.852-26.58-96.43-0.010l-250.8 251.014c-26.65 26.65-26.654 69.784 0 96.438 9.32 9.32 36.082 36.082 57.862 57.862 34.942 34.94 35.43 91.87-0.034 127.33l-127.264 126.864c-35.096 35.094-92.202 35.094-127.204 0.092-26.192-25.964-34.64-34.34-46.384-45.982-126.56-126.558-126.56-332.485-0.006-459.039l397.385-397.593c126.856-126.858 332.177-126.868 459.043 0l46.292 46.29c35.096 35.096 35.096 92.2 0 127.296zM183.666 891.236c11.698 11.698 30.73 11.7 42.466-0.032l127.264-126.864c11.726-11.726 11.726-30.704 0-42.432l-21.218-21.216-169.62 169.62 21.108 20.924zM534.761 73.572l-397.387 397.597c-97.916 97.916-103.298 251.666-16.552 356.013l169.128-169.128c-44.44-50.378-42.588-127.144 5.574-175.306l250.792-251.002c0.002-0.002 0.006-0.006 0.008-0.008 48.11-48.112 124.872-50.084 175.312-5.584l169.132-169.132c-104.014-86.596-257.419-82.038-356.009 16.552zM955.226 119.868l-21.218-21.218-169.73 169.732 21.214 21.216c11.7 11.698 30.734 11.7 42.434 0l127.298-127.298c11.7-11.7 11.7-30.736 0.002-42.432z" />
<glyph unicode="&#xe907;" glyph-name="maps-and-flags" d="M512 960c-204.49 0-370.854-166.364-370.854-370.852 0-253.776 331.878-626.334 346.008-642.070 13.272-14.782 36.444-14.756 49.692 0 14.13 15.736 346.008 388.294 346.008 642.070-0.004 204.488-166.366 370.852-370.854 370.852zM512 20.542c-111.694 132.676-304.070 394.434-304.070 568.602 0 167.668 136.404 304.072 304.070 304.072s304.070-136.404 304.070-304.070c-0.002-174.176-192.348-435.886-304.070-568.604zM512 775.732c-102.884 0-186.584-83.702-186.584-186.586s83.702-186.586 186.584-186.586 186.582 83.702 186.582 186.586-83.7 186.586-186.582 186.586zM512 469.344c-66.060 0-119.8 53.742-119.8 119.802s53.742 119.802 119.8 119.802 119.8-53.742 119.8-119.802-53.742-119.802-119.8-119.802z" />
<glyph unicode="&#xe908;" glyph-name="email" d="M934 838h-844c-49.564 0-90-40.392-90-90v-600c0-49.44 40.256-90 90-90h844c49.44 0 90 40.256 90 90v600c0 49.44-40.256 90-90 90zM921.572 778l-407.664-407.666-411.19 407.666h818.854zM60 160.424v575.438l288.958-286.48-288.958-288.958zM102.426 118l289.14 289.14 101.314-100.444c11.728-11.628 30.654-11.59 42.334 0.092l98.786 98.786 287.574-287.574h-819.148zM964 160.426l-287.574 287.574 287.574 287.576v-575.15z" />
<glyph unicode="&#xe909;" glyph-name="calendar-o" horiz-adv-x="951" d="M73.143 0h804.571v585.143h-804.571v-585.143zM292.571 694.857v164.571c0 10.286-8 18.286-18.286 18.286h-36.571c-10.286 0-18.286-8-18.286-18.286v-164.571c0-10.286 8-18.286 18.286-18.286h36.571c10.286 0 18.286 8 18.286 18.286zM731.429 694.857v164.571c0 10.286-8 18.286-18.286 18.286h-36.571c-10.286 0-18.286-8-18.286-18.286v-164.571c0-10.286 8-18.286 18.286-18.286h36.571c10.286 0 18.286 8 18.286 18.286zM950.857 731.428v-731.429c0-40-33.143-73.143-73.143-73.143h-804.571c-40 0-73.143 33.143-73.143 73.143v731.429c0 40 33.143 73.143 73.143 73.143h73.143v54.857c0 50.286 41.143 91.429 91.429 91.429h36.571c50.286 0 91.429-41.143 91.429-91.429v-54.857h219.429v54.857c0 50.286 41.143 91.429 91.429 91.429h36.571c50.286 0 91.429-41.143 91.429-91.429v-54.857h73.143c40 0 73.143-33.143 73.143-73.143z" />
<glyph unicode="&#xe90a;" glyph-name="check" horiz-adv-x="1329" d="M1185.358 951.725c-15.515-8.275-101.366-95.16-437.527-444.251-250.828-260.655-274.618-283.41-285.996-279.79-6.206 2.069-56.889 52.752-113.261 113.261-201.697 216.695-195.491 210.489-221.349 210.489-21.204 0-25.341-2.586-55.855-32.582-76.541-75.507-79.127-83.782-43.442-130.844 42.925-56.372 408.566-443.216 423.564-448.388 10.861-3.62 18.618-2.069 31.547 5.172 9.309 5.172 82.747 78.093 163.426 161.875 178.424 185.665 245.657 255.483 333.576 346.505 37.236 38.271 98.78 102.4 137.051 142.222s97.745 101.366 132.396 137.051c74.99 78.093 81.713 87.402 77.576 110.158-3.62 20.17-91.022 110.158-111.709 114.295-7.24 2.069-20.17-0.517-29.996-5.172z" />
<glyph unicode="&#xe90b;" glyph-name="eye" horiz-adv-x="1680" d="M697.056 949.961c-146.238-22.421-288.125-80.648-412.612-168.324-94.369-66.593-185.056-158.954-246.63-251.65-36.476-54.881-37.814-57.893-37.814-86.003v-25.433l27.775-41.495c39.153-58.897 74.29-101.396 124.486-151.592 151.258-151.258 334.975-243.618 550.484-276.413 39.822-6.024 63.582-7.697 132.183-7.697 87.341-0.335 113.108 2.008 189.741 16.732 131.179 25.433 263.027 82.322 377.14 163.305 99.388 70.275 190.41 166.986 256.335 271.728l18.405 29.448v27.775c0 26.437-0.669 28.444-13.72 50.196-127.163 209.15-341.333 367.435-580.936 429.344-85.333 22.086-106.081 24.429-230.233 25.433-97.715 1.004-119.467 0-154.604-5.354zM943.686 844.549c194.761-24.094 371.786-113.108 510.327-256.335 38.818-40.157 70.275-78.975 96.711-119.132l16.063-23.759-14.39-21.417c-56.889-84.664-148.915-177.359-231.237-232.91-220.528-148.58-494.599-189.407-742.233-110.431-134.86 43.169-238.599 106.081-346.018 210.154-41.495 40.492-80.314 86.003-109.427 129.171l-17.067 25.433 21.752 32.46c46.18 67.932 122.813 148.915 187.733 197.438 121.809 91.692 264.366 149.919 413.616 168.993 49.527 6.358 162.97 6.693 214.17 0.335zM789.752 757.542c-79.644-13.051-150.923-55.885-202.123-122.144-112.774-145.234-72.282-361.077 86.672-458.792 107.085-65.924 246.295-61.239 348.026 11.712 56.554 40.826 100.392 102.735 120.805 171.671 11.712 39.822 14.724 100.058 6.358 143.226-27.106 144.565-149.25 250.311-297.83 257.673-20.748 1.004-44.507-0.335-61.908-3.346zM891.482 648.784c38.484-9.705 63.247-24.429 94.369-55.216 43.838-43.503 62.243-86.003 62.912-143.895 0.335-40.157-4.35-61.239-22.086-98.384-18.74-39.488-53.877-74.625-93.365-93.365-36.476-17.401-57.893-22.421-96.711-22.086-57.558 0.335-103.069 19.744-145.903 62.912-45.511 45.511-64.251 95.373-60.57 158.954 3.012 53.877 23.090 98.050 60.905 135.864 29.783 29.783 73.621 53.208 112.105 59.566 23.090 4.016 64.251 2.008 88.345-4.35z" />
<glyph unicode="&#xe912;" glyph-name="user" horiz-adv-x="1074" d="M474.953 949.177c-149.854-32.885-248.924-181.906-219.369-330.511 33.717-169.418 203.967-270.569 367.141-218.953 82.836 26.224 155.681 99.070 183.571 183.154 9.574 29.554 11.239 40.377 11.239 87.831 0 48.702-1.249 57.444-11.655 87.415-15.402 44.956-32.052 72.429-62.439 105.314-69.515 74.511-171.083 106.979-268.488 85.75zM574.855 876.748c82.836-15.402 152.351-87.831 166.92-173.58 18.732-111.974-62.023-221.867-175.246-239.766-109.060-16.65-214.79 57.444-237.268 166.92-29.554 143.193 100.319 273.483 245.593 246.426zM316.358 333.112c-112.807-19.564-198.14-74.094-255.584-163.174-34.133-52.449-56.611-124.046-56.611-179.408 0-20.397 1.665-27.057 9.99-36.631l9.99-11.655 506.172-1.249c446.647-0.833 507.837 0 518.66 5.411 18.732 9.574 22.062 19.564 18.732 57.444-12.904 151.519-111.141 272.234-258.081 318.023l-37.463 11.239-222.699 0.833c-122.38 0.416-227.278 0-233.106-0.833zM768 254.439c82.42-15.818 161.093-77.008 197.307-153.6 10.823-22.894 25.392-69.099 25.392-81.171 0-3.33-125.294-4.579-453.724-4.579-429.164 0-453.724 0.416-453.724 7.493 0.416 29.554 30.803 98.654 58.693 131.954 40.377 48.702 104.481 88.663 160.26 99.486 43.291 8.741 421.255 9.158 465.795 0.416z" />
</font></defs></svg>